<?xml version="1.0" encoding="utf-8"?>
<!-- Generator: Adobe Illustrator 16.2.0, SVG Export Plug-In . SVG Version: 6.00 Build 0)  -->
<!DOCTYPE svg PUBLIC "-//W3C//DTD SVG 1.1//EN" "http://www.w3.org/Graphics/SVG/1.1/DTD/svg11.dtd">
<svg version="1.1" id="new-folder" xmlns="http://www.w3.org/2000/svg" xmlns:xlink="http://www.w3.org/1999/xlink" x="0px" y="0px"
	 width="56px" height="56px" viewBox="0 0 56 56" enable-background="new 0 0 56 56" xml:space="preserve">
<polygon fill="#464547" points="37.668,28 24.335,41.334 27.668,44.667 44.334,28 41.001,24.667 41.001,24.667 27.668,11.333 
	24.335,14.667 "/>
<polygon fill="#464547" points="25.001,28 11.667,41.334 15.001,44.667 31.668,28 15.001,11.333 11.667,14.667 "/>
</svg>
