<?xml version="1.0" encoding="utf-8"?>
<!-- Generator: Adobe Illustrator 16.2.0, SVG Export Plug-In . SVG Version: 6.00 Build 0)  -->
<!DOCTYPE svg PUBLIC "-//W3C//DTD SVG 1.1//EN" "http://www.w3.org/Graphics/SVG/1.1/DTD/svg11.dtd">
<svg version="1.1" id="new-folder" xmlns="http://www.w3.org/2000/svg" xmlns:xlink="http://www.w3.org/1999/xlink" x="0px" y="0px"
	 width="56px" height="56px" viewBox="0 0 56 56" enable-background="new 0 0 56 56" xml:space="preserve">
<g id="move_x5F_blue">
	<path fill="#464547" d="M15.263,24.514h9.25v-9.251h-5.022L28,6l8.508,9.263h-5.021v9.25h9.25v-5.022L50,28l-9.263,8.508v-5.021
		h-9.251v9.25h5.022L28,50l-8.508-9.263h5.021v-9.251h-9.251v5.022L6,28l9.263-8.508V24.514z"/>
</g>
</svg>
