<?xml version="1.0" encoding="utf-8"?>
<!-- Generator: Adobe Illustrator 16.2.0, SVG Export Plug-In . SVG Version: 6.00 Build 0)  -->
<!DOCTYPE svg PUBLIC "-//W3C//DTD SVG 1.1//EN" "http://www.w3.org/Graphics/SVG/1.1/DTD/svg11.dtd">
<svg version="1.1" id="new-folder" xmlns="http://www.w3.org/2000/svg" xmlns:xlink="http://www.w3.org/1999/xlink" x="0px" y="0px"
	 width="56px" height="56px" viewBox="0 0 56 56" enable-background="new 0 0 56 56" xml:space="preserve">
<path fill="#464547" d="M17.438,9c7.423,0,13.437,5.938,13.437,13.267c0,1.494-0.249,2.924-0.712,4.263l0.772,0.563l1.854,3.232
	l3.891-1.327l-1.07,6.913l6.053-0.837l-0.204,6.734l6.698-3.431l1.855,1.836L52,49.882L43.93,51L22.052,34.729
	c-1.435,0.521-2.988,0.805-4.614,0.805C10.017,35.532,4,29.594,4,22.265C4,14.938,10.017,9,17.438,9z M13.602,15.63
	c-1.592,0-2.881,1.271-2.881,2.842c0,1.571,1.289,2.85,2.881,2.85c1.583,0,2.871-1.278,2.871-2.85
	C16.473,16.9,15.185,15.63,13.602,15.63z"/>
</svg>
