﻿<?xml version="1.0" encoding="utf-8"?>
<!DOCTYPE svg PUBLIC "-//W3C//DTD SVG 1.1//EN" "http://www.w3.org/Graphics/SVG/1.1/DTD/svg11.dtd">
<svg xmlns="http://www.w3.org/2000/svg" xmlns:xlink="http://www.w3.org/1999/xlink" version="1.1" baseProfile="full" width="76.0106" height="76.0106" viewBox="0 0 76.01 76.01" enable-background="new 0 0 76.01 76.01" xml:space="preserve">
	<path fill="#0083ca" fill-opacity="1" stroke-width="0.2" stroke-linejoin="round" d="M 25.3362,20.5864L 25.3348,29.2137C 28.5107,25.8499 33.0116,23.7507 38.0029,23.7507C 47.6232,23.7507 55.422,31.5494 55.422,41.1698C 55.422,45.9799 53.4723,50.3347 50.32,53.4869L 46.401,49.5679C 48.5503,47.4187 49.8796,44.4495 49.8796,41.1699C 49.8796,34.6106 44.5623,29.2932 38.003,29.2932C 34.4855,29.2932 31.3251,30.8224 29.1504,33.2522L 38.0029,33.2531L 33.2529,38.0031L 20.5862,38.0031L 20.5862,25.3364L 25.3362,20.5864 Z "/>
</svg>
