<?xml version="1.0" encoding="utf-8"?>
<!-- Generator: Adobe Illustrator 16.2.0, SVG Export Plug-In . SVG Version: 6.00 Build 0)  -->
<!DOCTYPE svg PUBLIC "-//W3C//DTD SVG 1.1//EN" "http://www.w3.org/Graphics/SVG/1.1/DTD/svg11.dtd">
<svg version="1.1" xmlns="http://www.w3.org/2000/svg" xmlns:xlink="http://www.w3.org/1999/xlink" x="0px" y="0px" viewBox="-13 -13 64 64" enable-background="new -13 -13 64 64" xml:space="preserve">
<g id="blue_-bg" display="none">
	<rect x="-13" y="-13" display="inline" fill="#0083CA" width="64" height="64"/>
</g>
<g id="Layer_1" display="none">
	<g id="original_share">
		<circle display="inline" fill="#0083CA" cx="26" cy="38" r="7"/>
		<circle display="inline" fill="#0083CA" cx="50" cy="26" r="7"/>
		<circle display="inline" fill="#0083CA" cx="50" cy="50" r="7"/>
		<path display="inline" fill="#0083CA" d="M41,23c-8.28516,0-15,6.71484-15,15c0,8.28418,6.71484,15,15,15
			c8.28418,0,15-6.71582,15-15C56,29.71484,49.28418,23,41,23z M41,50c-6.62695,0-12-5.37402-12-12c0-6.62695,5.37305-12,12-12
			c6.62598,0,12,5.37305,12,12C53,44.62598,47.62598,50,41,50z"/>
	</g>
	<g id="original_doc_types">
		<path display="inline" fill="#0083CA" d="M59.98047,19h22.25l12.75,12.75V61h-35V19z M63.98047,23v34h27V35h-12V23H63.98047z
			 M81.98047,24.25V32h7.75L81.98047,24.25z"/>
		<g display="inline">
			<path fill="#0083CA" d="M71.20215,37.13574c0,1.2793-0.18066,1.78418-0.70215,2.25293C69.95996,39.85547,69.24023,40,68.55664,40
				c-0.39648,0-2-0.01953-2.44922-1.51172c-0.12695-0.39746-0.12695-0.75586-0.12695-1.53125v-7.34766
				c0-1.09766,0.30664-2.60938,2.64746-2.60938c2.35645,0,2.57422,1.54785,2.57422,2.70117V37.13574z M69.6543,29.5752
				c0-0.73926-0.1084-1.35059-1.06348-1.35059c-0.77441,0-1.06348,0.43262-1.06348,1.13477v8.11914
				c0,0.66797,0.10938,1.20703,1.06348,1.20703c0.70117,0,1.06348-0.30664,1.06348-1.15137V29.5752z"/>
		</g>
		<g display="inline">
			<path fill="#0083CA" d="M74.79004,39.65723v-9.59668h-1.40332v-1.24414c0.32129-0.03516,1.61719-0.16113,1.90625-1.81641h1.09766
				v12.65723H74.79004z"/>
		</g>
		<g display="inline">
			<path fill="#0083CA" d="M76.39063,52.13672c0,1.2793-0.17969,1.7832-0.70117,2.25195C75.14844,54.85547,74.42969,55,73.74414,55
				c-0.39648,0-1.99902-0.01758-2.44922-1.51172c-0.12598-0.39648-0.12598-0.75586-0.12598-1.53125v-7.3457
				c0-1.10059,0.30566-2.61133,2.64746-2.61133c2.35645,0,2.57422,1.54883,2.57422,2.70117V52.13672L76.39063,52.13672z
				 M74.84277,44.57422c0-0.73828-0.1084-1.34961-1.06348-1.34961c-0.77441,0-1.0625,0.43164-1.0625,1.13477v8.11914
				c0,0.66797,0.10938,1.20703,1.0625,1.20703c0.70117,0,1.06348-0.30762,1.06348-1.15234V44.57422z"/>
		</g>
		<g display="inline">
			<path fill="#0083CA" d="M88.98242,52.13672c0,1.2793-0.17969,1.7832-0.70117,2.25195C87.74121,54.85547,87.02148,55,86.33691,55
				c-0.39551,0-1.99902-0.01758-2.44824-1.51172c-0.12695-0.39648-0.12695-0.75586-0.12695-1.53125v-7.3457
				c0-1.10059,0.30664-2.61133,2.64746-2.61133c2.35645,0,2.57324,1.54883,2.57324,2.70117V52.13672z M87.43555,44.57422
				c0-0.73828-0.10742-1.34961-1.0625-1.34961c-0.77539,0-1.0625,0.43164-1.0625,1.13477v8.11914
				c0,0.66797,0.1084,1.20703,1.0625,1.20703c0.70117,0,1.0625-0.30762,1.0625-1.15234V44.57422z"/>
		</g>
		<g display="inline">
			<path fill="#0083CA" d="M79.97852,54.65625v-9.5957h-1.4043v-1.24414c0.32227-0.03516,1.61719-0.16016,1.90625-1.81641h1.09863
				v12.65625H79.97852z"/>
		</g>
		<path display="inline" fill="#0083CA" d="M59.98047,19h22.25l12.75,12.75V61h-35V19z M63.98047,23v34h27V35h-12V23H63.98047z
			 M81.98047,24.25V32h7.75L81.98047,24.25z M65.98047,27h11v3h-11V27z M65.98047,32h11v3h-11V32z M65.98047,37h23v3h-23V37z
			 M65.98047,42h23v3h-23V42z M65.98047,47h23v3h-23V47z M65.98047,52h23v3h-23V52z"/>
		<path display="inline" fill="#0083CA" d="M88.47852,41.00977C90.91699,40.9668,93.16992,41.95313,95,43.28711l-6.32813,8.80469
			L99.25,55.41406c-1.39063,4.42773-5.48828,7.67383-10.38379,7.75977c-6.12012,0.10547-11.16895-4.76758-11.27539-10.88867
			S82.35938,41.11719,88.47852,41.00977z M59.98047,19h22.25l12.75,12.75v8.9707l-4-1.63281V35h-12V23h-15v34h12.25l1.5,4h-17.75V19
			z M81.98047,24.25V32h7.75L81.98047,24.25z M74.23047,53.83398h-7.91602v-3.16602h7.91602V53.83398z M75.81445,49.08398h-9.5
			v-3.16602h9.5V49.08398z M66.31445,44.33398v-3.16602h11.08203v3.16602H66.31445z"/>
		<path display="inline" fill="#0083CA" d="M59.98047,19h22.25l12.75,12.75V39h-4v-4h-12V23h-15v34h11.25l-3.25,4h-12V19z
			 M94.98047,58.75l-4-5.75v-4l4-5V58.75z M81.23047,61l2.9834-3.6543L86.48047,61H81.23047z M81.98047,24.25V32h7.75
			L81.98047,24.25z M73.23047,40h7.25l4.53711,6.42188L89.98047,40h6.5l-8.49414,10.70313L97.98047,65h-7.5l-6.27734-9.48047
			L78.98047,62h-6.5l8.75195-10.76172L73.23047,40z"/>
		<path display="inline" fill="#0083CA" d="M79.98047,64l-7-21h-2v-3h8v3h-2l4.36719,13.24414L87.23047,40h2.5l5.77344,16.24414
			L98.98047,43h-2v-3h8v3h-2l-6,21h-2l-6.66406-16.86523L81.98047,64H79.98047z M59.98047,19h22.25l12.75,12.75V51l-4-11v-5h-12V23
			h-15v34h12.25l1.5,4h-17.75V19z M84.48047,61l1.5-4h5l1.5,4H84.48047z M81.98047,24.25V32h7.75L81.98047,24.25z"/>
		<g display="inline">
			<path fill="#0083CA" d="M67.38477,54.65625v-9.5957h-1.4043v-1.24414c0.32129-0.03516,1.61719-0.16016,1.90625-1.81641h1.09766
				v12.65625H67.38477z"/>
		</g>
	</g>
	<g id="download_x5F_blue">
		<polygon display="inline" fill="#0083CA" points="29.21484,27.75293 23.2207,33.74707 21.29883,35.66992 18.97852,37.98926 
			18.97852,37.98926 8.74414,27.75488 8.74414,19.26904 15.97852,26.50488 15.97852,-0.01074 21.97852,-0.01074 21.97852,26.50293 
			29.21484,19.26709 		"/>
	</g>
	<g id="version_x5F_blue">
		<path display="inline" fill="#0083CA" d="M13.875,11.09326h11.08398v3.16699v19.00049H28.125v4.75h-14.25v-4.75h3.16699V15.84326
			H13.875V11.09326z M21,0.01025c2.1875,0,3.95898,1.77148,3.95898,3.95801S23.1875,7.92725,21,7.92725
			c-2.18555,0-3.95703-1.77246-3.95703-3.95801S18.81445,0.01025,21,0.01025z"/>
	</g>
	<g id="rename_x5F_blue">
		<path display="inline" fill="#0083CA" d="M0,38.00977l7.90918-1.79492c-1.00098-2.97949-2.67871-5.63965-5.97559-6.45313
			L0,38.00977z M15.2207,35.00977L38,12.01709c-1.7793-3.56738-4.35547-6.68262-7.50195-9.1123L9.13281,24.50391v4.5h6.08789
			V35.00977z M7.61133,23.75391L29.17676,1.95361c-1.07129-0.72461-2.19043-1.37305-3.35352-1.94336L3.80469,22.24707
			l0.00195,1.50684H7.61133z"/>
	</g>
	<g id="help_x5F_blue">
		<g display="inline">
			<rect x="16" y="32.01074" fill="#0083CA" width="6" height="6"/>
			<path fill="#0083CA" d="M19,0.01025c-7.17969,0-12.99902,5.82031-13,13h6c0-3.86621,3.13379-7,7-7c3.86523,0,7,3.13379,7,7
				c0,3.86523-3.13477,7.00049-7,7.00049c-1.07617,0-1.90625,0-3,0v9h6v-3.36133c5.73047-1.35645,10-6.49268,10-12.63916
				C32,5.83057,26.18164,0.01025,19,0.01025z"/>
		</g>
	</g>
	<g id="search_x5F_blue">
		<path display="inline" fill="#0083CA" d="M23.66992,0.01025C31.58398,0.01025,38,6.42627,38,14.34033
			c0,7.91553-6.41602,14.33057-14.33008,14.33057c-2.70996,0-5.24707-0.75098-7.45215-2.01367L5.87109,37.00391
			c-1.34375,1.34277-3.51953,1.34277-4.86426,0c-1.3418-1.34277-1.3418-3.52051,0-4.86328l10.3916-10.3916
			c-1.30664-2.16016-2.05957-4.69873-2.05957-7.40967C9.33887,6.42627,15.75391,0.01025,23.66992,0.01025z M23.66992,4.59521
			c-5.38086,0-9.74609,4.36328-9.74609,9.74414c0,5.38135,4.36426,9.74756,9.74609,9.74756s9.74414-4.36523,9.74414-9.74756
			C33.41406,8.95752,29.05176,4.59521,23.66992,4.59521z"/>
	</g>
	<g id="profile_x5F_blue">
		<path display="inline" fill="#0083CA" d="M12.82813,3.3833c3.21973,0,5.83008,2.60938,5.83008,5.83105
			c0,3.21973-2.61035,5.83105-5.83008,5.83105c-3.2207,0-5.83105-2.61133-5.83105-5.83105
			C6.99707,5.99268,9.60742,3.3833,12.82813,3.3833z M6.99707,22.97559c-0.77637,0.38867-2.33203,3.49805-2.33203,3.49805
			s-0.77832,1.16602-1.16699,5.83203L0,31.1377l1.16602-5.83008c0,0,2.33301-8.16357,6.99805-8.16357h9.3291
			c4.66602,0,6.99805,8.16357,6.99805,8.16357l1.16699,5.83008l-3.49902,1.16797c-0.3916-4.66602-1.16699-5.83203-1.16699-5.83203
			s-1.55469-3.10938-2.33301-3.49805l0.4707,10.5918c-1.77051,0.69141-3.7002,1.07031-5.71875,1.07031
			c-2.45801,0-4.78711-0.56445-6.86035-1.57031L6.99707,22.97559z M21.23047,5.06006H38V7.854H21.23047V5.06006z M21.23047,10.64893
			H38v2.79492H21.23047V10.64893z M23.0957,16.23877H38v2.79492H23.0957V16.23877z M25.88867,21.8291H38v2.79492H25.88867V21.8291z
			 M27.75195,27.41699H38v2.79492H27.75195V27.41699z"/>
	</g>
	<g id="folder_x5F_blue">
		<path display="inline" fill="#0083CA" d="M0,10.01025h38v26.00049H0V10.01025z"/>
		<path display="inline" fill="#0083CA" d="M33.65723,8.01025H17.37207c1.08496-3.25684,2.71387-6,2.71387-6H32.2998
			c0.60059,0,1.35742,0.75684,1.35742,1.35547V8.01025z"/>
	</g>
</g>
<g id="tools" display="none">
	<path display="inline" d="M-0.69141,26.43555c1.84277,0,3.59082,0.40625,5.16113,1.13086l9.78223-9.76367l-3.67383-3.66602
		l-3.48145,3.47412l-3.48145-3.47412l1.44629-1.44336c-2.94043-1.14648-5.14746-3.47803-8.64453-6.96875
		c-7.20996-7.19482-11.33203-14.74512-8.44824-17.62305s9.2207,0.00732,16.43066,7.20117
		c3.49707,3.49072,7.06445,6.92041,8.21387,9.85547l1.44629-1.44336l3.48047,3.47412l-3.48047,3.47363l3.67383,3.6665
		l9.78223-9.76221c-0.72559-1.56641-1.13086-3.31104-1.13086-5.1499c0-6.78369,5.51074-12.28223,12.30566-12.28223
		c1.58789,0,3.10645,0.2998,4.49902,0.84619l-9.4209,9.40039l6.96289,6.94775l9.41992-9.40039
		C50.69922-3.68115,51-2.16699,51-0.58301c0,6.78271-5.51074,12.28125-12.30957,12.28125c-1.3252,0-2.60156-0.20898-3.79785-0.59668
		L24.69629,21.27539l14.3252,14.29785l0.87012-0.86914l8.4668,8.44824l-5.22266,5.21191l-8.46484-8.44824l0.87012-0.86914
		l-14.32715-14.2959l-10.19629,10.1748c0.38867,1.19336,0.59766,2.46875,0.59766,3.79102C11.61523,45.5,6.10547,51-0.69141,51
		c-1.58789,0-3.10449-0.2998-4.49805-0.8457l9.4209-9.40234l-6.96289-6.94727l-9.41992,9.40234
		C-12.69922,41.81641-13,40.30078-13,38.7168C-13,31.93457-7.48926,26.43555-0.69141,26.43555z"/>
</g>
<g id="encryption" display="none">
	<path display="inline" d="M45.15527-5.71875c0.7959-0.35791,1.50781-0.53564,2.14551-0.53564
		c0.61523,0,1.16016,0.14453,1.625,0.4292c0.46973,0.28711,0.85449,0.66406,1.16895,1.13184l0.68359,1.5835L51-1.36768
		c0,3.6377-0.21094,7.04004-0.62793,10.19922c-0.41797,3.1626-1.00098,6.11084-1.74609,8.84082
		c-0.74219,2.73291-1.62012,5.25244-2.63574,7.55615c-1.01563,2.30566-2.1123,4.42676-3.29297,6.36914
		c-1.18262,1.94141-2.42676,3.70605-3.73633,5.30078c-1.30762,1.58789-2.63086,3.01758-3.96777,4.29102
		C30.28711,45.65918,24.95898,48.93066,18.99512,51c-5.97559-2.06934-11.30713-5.34082-15.99805-9.81055
		c-2.00195-1.90918-3.96191-4.17285-5.88281-6.79688c-1.91748-2.62305-3.62793-5.67285-5.12451-9.15723
		c-1.49609-3.47754-2.70166-7.41406-3.61768-11.80908C-12.54346,9.03467-13,4.10449-13-1.36768l0.25293-1.76123l0.74219-1.54883
		c0.3291-0.46094,0.73584-0.82715,1.2207-1.10303c0.48682-0.27637,1.03857-0.41602,1.65381-0.41602
		c0.61572,0,1.27393,0.15967,1.97412,0.47803c1.60889,0.7373,3.08691,1.26074,4.43848,1.56543
		c1.35156,0.3042,2.60156,0.45703,3.75098,0.45703c1.53271,0,2.90869-0.22607,4.12891-0.68213
		c1.22021-0.45313,2.3418-1.03076,3.36426-1.72705l2.8335-2.23682l2.51514-2.23633l2.46973-1.73389
		C17.17627-12.76953,18.06104-13,18.99512-13c0.95508,0,1.84961,0.23047,2.68262,0.6875l2.47754,1.73389l2.5293,2.23633
		l2.83301,2.23682c1.0127,0.69629,2.13281,1.27393,3.34863,1.72705c1.22363,0.45605,2.60352,0.68213,4.12793,0.68213
		c1.1543,0,2.39941-0.15283,3.73633-0.45703C42.07422-4.45801,43.54785-4.98145,45.15527-5.71875z"/>
</g>
<g id="Layer_36" display="none">
</g>
<g id="test" display="none">
	<path display="inline" d="M3.21191-13h31.58008v6.40088h-4.73926V4.59912L49,41.39746L44.26758,51H-6.26074L-11,41.39746
		L7.94971,4.59912V-6.59912H3.21191V-13z M3.21191,44.60254l14.21191-28.80127h10.81152l-4.49512-8V-6.59912h-9.47656V7.80127
		L-3.34814,44.60254H3.21191z"/>
</g>
<g id="activity" display="none">
	<path display="inline" d="M24.44727,40.10645v2.72363l-10.89404,2.72266v-2.72266L24.44727,40.10645z M24.44727,44.19141v2.72363
		l-10.89404,2.72363v-2.72363L24.44727,44.19141z M24.44727,38.74512l-10.89404,2.72266c0,0,0-4.08496-2.36182-5.44629
		c0,0-0.021-17.70215-6.82959-29.95752c0,0-3.06396-8.17041,14.63818-8.17041s14.63867,8.17041,14.63867,8.17041
		c-6.80859,12.25537-6.46875,29.95752-6.46875,29.95752C24.44727,36.02148,24.44727,38.74512,24.44727,38.74512z M19,12.87256
		c4.08496,0,8.16992,0.68066,8.16992,0.68066l3.06445-6.12793C33.29785,0.61719,24.44727,0.61719,19,0.61719
		c-5.44678,0-14.29785,0-11.23389,6.80811l3.06348,6.12793C10.82959,13.55322,14.91504,12.87256,19,12.87256z M21.72363,48.95703V51
		h-5.44727v-0.68066L21.72363,48.95703z M19-13c0.75293,0,1.36133,0.60889,1.36133,1.36182v4.08496
		c0,0.75293-0.6084,1.36182-1.36133,1.36182c-0.75244,0-1.36182-0.60889-1.36182-1.36182v-4.08496
		C17.63818-12.39111,18.24756-13,19-13z M31.5957-10.8418c0.65137,0.37646,0.875,1.20898,0.49707,1.86035l-2.04199,3.53711
		c-0.375,0.65186-1.20801,0.875-1.85938,0.49902c-0.65137-0.37646-0.875-1.20898-0.49902-1.86035l2.04297-3.5376
		C30.11133-10.99463,30.94434-11.21826,31.5957-10.8418z M42.71289-4.26611c0.35352,0.66357,0.10059,1.48828-0.5625,1.84082
		l-3.60645,1.91748c-0.66406,0.35352-1.48828,0.10107-1.8418-0.5625s-0.10156-1.48828,0.56348-1.8418l3.60645-1.91748
		C41.53613-5.18359,42.36035-4.93066,42.71289-4.26611z M43.85059,8.42041C43.69434,9.1543,42.9707,9.625,42.23633,9.46826
		l-3.99707-0.84863c-0.73438-0.15674-1.20508-0.88037-1.04785-1.61572s0.87891-1.20605,1.61426-1.04932l3.99609,0.8501
		C43.53711,6.95996,44.00781,7.68359,43.85059,8.42041z M40.46582,17.26611c-0.28223,0.69678-1.07617,1.03418-1.77441,0.75244
		l-3.78711-1.53076c-0.69727-0.28174-1.03418-1.07568-0.75293-1.77246c0.28223-0.69678,1.07617-1.03467,1.77441-0.75244
		l3.78711,1.53027C40.40918,15.77539,40.74707,16.56934,40.46582,17.26611z M6.4043-10.8418
		c0.65137-0.37646,1.48389-0.15283,1.86035,0.49854l2.04248,3.5376c0.37646,0.65137,0.15283,1.48389-0.49854,1.86035
		C9.15674-4.56934,8.32471-4.79248,7.94971-5.44434L5.90674-8.98145C5.5293-9.63281,5.75244-10.46533,6.4043-10.8418z
		 M-4.71289-4.26611c0.35254-0.66455,1.17676-0.91748,1.84033-0.56348l3.60645,1.91748
		c0.66504,0.35352,0.91748,1.17822,0.56396,1.8418s-1.17822,0.91602-1.8418,0.5625l-3.60645-1.91748
		C-4.81396-2.77783-5.06641-3.60254-4.71289-4.26611z M-5.85107,8.41895c-0.15674-0.73535,0.31396-1.45898,1.04932-1.61426
		l3.99609-0.8501c0.73535-0.15674,1.45703,0.31396,1.61426,1.04932c0.15674,0.73535-0.31396,1.45898-1.04785,1.61572
		l-3.99756,0.84863C-4.9707,9.625-5.69434,9.1543-5.85107,8.41895z M-2.46533,17.26611
		c-0.28223-0.69678,0.05566-1.49072,0.75244-1.77295l3.7876-1.53027c0.69775-0.28223,1.4917,0.05566,1.77393,0.75244
		c0.28174,0.69678-0.05615,1.49072-0.75293,1.77246l-3.78711,1.53076C-1.38965,18.30029-2.18359,17.96289-2.46533,17.26611z"/>
</g>
<g id="restore" display="none">
	<path display="inline" d="M19-8.0752c7.75781,0,14.75488,3.2627,19.69043,8.49121V-13l7.38477,7.38477v19.69336H26.38477
		L19,6.69336h13.76074C29.37988,2.91602,24.46875,0.53906,19,0.53906c-9.36084,0-17.09473,6.96875-18.29834,15.99805h-8.66748
		C-6.72217,2.7373,4.87646-8.0752,19-8.0752z M19,37.46094c9.36133,0,17.09473-6.96875,18.29883-15.99805h8.66699
		C44.72266,35.2627,33.12402,46.0752,19,46.0752c-7.75781,0-14.75488-3.2627-19.69043-8.49121V51l-7.38477-7.38477V23.92188
		h19.69092L19,31.30664H5.23926C8.62012,35.08398,13.53174,37.46094,19,37.46094z"/>
</g>
<g id="trash" display="none">
	<path display="inline" d="M-3.75439-5.8877h45.5083c1.57227,0,2.13379,6.3999,2.13379,6.3999H-5.8877
		C-5.8877,0.51221-5.32617-5.8877-3.75439-5.8877z M14.7334-13h8.5332c0.78613,0,2.8457,2.05957,2.8457,2.8457
		c0,0.78418-2.05957,2.84375-2.8457,2.84375h-8.5332c-0.78418,0-2.84375-2.05957-2.84375-2.84375
		C11.88965-10.94043,13.94922-13,14.7334-13z M0.51221,2.64551h36.9751c1.57227,0,2.8457,1.27393,2.8457,2.84375L37.4873,48.1582
		c0,1.57031-1.27148,2.8418-2.8418,2.8418H3.35596c-1.57178,0-2.84375-1.27148-2.84375-2.8418L-2.3335,5.48926
		C-2.3335,3.91943-1.05957,2.64551,0.51221,2.64551z M4.77881,8.3335l0.71045,36.979h4.97754L9.75635,8.3335H4.77881z
		 M16.15625,8.3335v36.979h5.68945V8.3335H16.15625z M28.24609,8.3335l-0.71289,36.979h4.97949l0.70801-36.979H28.24609z"/>
</g>
<g id="permissions" display="none">
	<path display="inline" d="M4.91943-8.99951c9.89502,0,17.91162,7.9209,17.91162,17.68799
		c0,1.98877-0.33105,3.89404-0.94336,5.68359l1.02246,0.75049l2.47852,4.30664l5.18848-1.7627l-1.43262,9.21729l8.07227-1.11133
		l-0.27344,8.9707l8.92871-4.58008l2.4707,2.45508L51,45.51172L40.23438,47l-29.1626-21.69922
		c-1.9165,0.69727-3.99121,1.07617-6.15234,1.07617C-4.98145,26.37695-13,18.45557-13,8.68848S-4.98145-8.99951,4.91943-8.99951z
		 M-0.20264-0.15967c-2.12158,0-3.84131,1.69727-3.84131,3.79297c0,2.09521,1.71973,3.79248,3.84131,3.79248
		c2.11816,0,3.83594-1.69727,3.83594-3.79248C3.6333,1.5376,1.91553-0.15967-0.20264-0.15967z"/>
</g>
<g id="expire" display="none">
	<path display="inline" d="M19-7.18213c16.06641,0,29.09277,13.0249,29.09277,29.09229C48.09277,37.97656,35.06641,51,19,51
		C2.93311,51-10.0918,37.97656-10.0918,21.91016C-10.0918,5.84277,2.93311-7.18213,19-7.18213z M19,0.09082
		c-12.05029,0-21.81836,9.76855-21.81836,21.81934c0,12.04883,9.76807,21.81934,21.81836,21.81934
		c12.05078,0,21.81934-9.77051,21.81934-21.81934C40.81934,9.85938,31.05078,0.09082,19,0.09082z M18.27246,5.90918
		c1.60742,0,2.90918,1.30225,2.90918,2.90918v10.90918H32.0918c1.60742,0,2.91016,1.30176,2.91016,2.9082v1.45703
		c0,1.60547-1.30273,2.90625-2.91016,2.90625H19c-1.4541-0.24023-2.90918-0.48438-3.75781-1.33105
		c-0.84814-0.85059-1.09033-2.30371-1.3335-3.75781V8.81836c0-1.60693,1.30273-2.90918,2.90967-2.90918H18.27246z M39.36523-13
		C45.79102-13,51-7.79053,51-1.36426c0,2.77295-0.96875,5.31934-2.58789,7.31787c-3.79297-6.97949-10.00098-12.45752-17.5-15.31689
		C33.0332-11.60352,36.03516-13,39.36523-13z M-1.36426-13c3.32861,0,6.33105,1.39648,8.45215,3.63672
		c-7.49951,2.85938-13.70557,8.3374-17.5,15.31689C-12.03125,3.95508-13,1.40869-13-1.36426C-13-7.79053-7.79053-13-1.36426-13z"/>
</g>
<g id="undo" display="none">
	<path display="inline" d="M-4.27393-11.22461L-4.27588,4.62598C1.55811-1.55469,9.82813-5.41113,19-5.41113
		c17.67188,0,32,14.32715,32,32.00293c0,8.83789-3.58008,16.83984-9.37305,22.63281l-7.19727-7.20313
		c3.94727-3.94727,6.39063-9.4043,6.39063-15.42969c0-12.05078-9.77148-21.81934-21.82031-21.81934
		c-6.46289,0-12.26953,2.80762-16.26611,7.27246L19,12.04688l-8.72852,8.72852H-13V-2.49805L-4.27393-11.22461z"/>
</g>
<g id="collaborator-image" display="none">
	<path display="inline" d="M19-13c9.33398,0,13.33398,5.33301,11.9873,16.52832C32.19043,4.21729,33,5.51416,33,7
		c0,1.81738-1.21289,3.35303-2.875,3.84082c-0.69238,2.47021-1.77051,4.66113-3.125,6.41211v8.41309
		c4.44336,0.88867,7.99805,1.33398,13.33301,4C45.66602,32.33301,47.44336,34.77637,51,38.33301V51h-64V38.33301
		c3.55566-3.55664,5.3335-6,10.6665-8.66699C3.00098,27,6.55615,26.55469,11,25.66602v-8.41309
		c-1.354-1.75098-2.43213-3.94189-3.12598-6.41406C6.2124,10.35303,5,8.81738,5,7c0-1.48584,0.81006-2.78271,2.01318-3.47168
		C5.66699-7.66699,9.6665-13,19-13z"/>
</g>
<g id="contact-person" display="none">
	<path display="inline" d="M19-13c9.33398,0,13.33398,5.33301,11.9873,16.52832C32.19043,4.21729,33,5.51416,33,7
		c0,1.81738-1.21289,3.35303-2.875,3.84082c-0.69238,2.47021-1.77051,4.66113-3.125,6.41211v8.41309
		c4.44336,0.88867,7.99805,1.33398,13.33301,4C45.66602,32.33301,47.44336,34.77637,51,38.33301V51h-64V38.33301
		c3.55566-3.55664,5.3335-6,10.6665-8.66699C3.00098,27,6.55615,26.55469,11,25.66602v-8.41309
		c-1.354-1.75098-2.43213-3.94189-3.12598-6.41406C6.2124,10.35303,5,8.81738,5,7c0-1.48584,0.81006-2.78271,2.01318-3.47168
		C5.66699-7.66699,9.6665-13,19-13z"/>
</g>
<g id="contact-group" display="none">
	<path display="inline" d="M19,5c5.83398,0,8.33398,3.33301,7.49219,10.33008C27.24414,15.76074,27.75,16.57129,27.75,17.5
		c0,1.13574-0.75781,2.0957-1.79688,2.40039C25.52051,21.44434,24.84668,22.81348,24,23.9082v5.25781
		c2.77734,0.55566,4.99902,0.83398,8.33301,2.5c3.33301,1.66699,4.44434,3.19434,6.66699,5.41699V45H-1v-7.91699
		c2.22217-2.22266,3.3335-3.75,6.6665-5.41699C9.00049,30,11.22266,29.72168,14,29.16602V23.9082
		c-0.84619-1.09473-1.52002-2.46387-1.95361-4.00879C11.00781,19.5957,10.25,18.63574,10.25,17.5
		c0-0.92871,0.50635-1.73926,1.2583-2.16992C10.66699,8.33301,13.1665,5,19,5z M3.66699,30.16602
		C0.90332,31.54688,1.16748,31.33398-0.44043,33H-13v-7.91699c2.22266-2.22266,3.33398-3.74902,6.66699-5.41699
		C-2.99951,18-0.77734,17.72168,2,17.16699V11.9082c-0.84619-1.09473-1.51953-2.46289-1.95313-4.00879
		C-0.9917,7.5957-1.75,6.63574-1.75,5.5c0-0.92871,0.50635-1.73926,1.2583-2.16992C-1.33301-3.66602,1.16699-7,7-7
		c5.47168,0,8.01025,4.43262,7.60986,10.56934C11,5,9.00049,7,9.0083,12.8291C8.25635,13.26074,7.75,14.07129,7.75,15
		c0,1.13574,0.25781,2.5957,1.29639,2.89941C9.47998,19.44531,10.15381,20.81348,11,21.9082v5.75781
		C8.22266,28.22168,7,28.5,3.66699,30.16602z M34.33301,30.16602C31,28.5,29.77734,28.22168,27,27.66602V21.9082
		c0.84668-1.09473,1.52051-2.46289,1.95313-4.00879C29.99219,17.5957,30.25,16.13574,30.25,15
		c0-0.92871-0.50586-1.73926-1.25781-2.1709C28.99902,7,27,5,23.39063,3.56934C22.98926-2.56738,25.52734-7,31-7
		c5.83301,0,8.33398,3.33398,7.49219,10.33008C39.24414,3.76074,39.75,4.57129,39.75,5.5c0,1.13574-0.75781,2.0957-1.79688,2.39941
		C37.51953,9.44434,36.84668,10.81348,36,11.9082v5.25879c2.77734,0.55469,4.99902,0.83301,8.33301,2.49902
		c3.33301,1.66797,4.44434,3.19434,6.66699,5.41699V33H38.44043C36.83203,31.33398,37.0957,31.54688,34.33301,30.16602z"/>
</g>
<g id="share-configuration">
	<path fill="#0083ca" d="M-3.9082,1.41602l5.9707-2.65967L3.97168,3.0376c2.0791-0.46143,4.18896-0.50146,6.21631-0.16553L11.8667-1.5
		l6.10352,2.34229l-1.68115,4.37646c1.73828,1.10498,3.28125,2.54639,4.51758,4.27881l4.27734-1.90576l2.66211,5.9707
		l-4.28418,1.90918c0.46484,2.0791,0.50195,4.18457,0.16113,6.2168L28,23.36621l-2.3457,6.1084l-4.37402-1.68164
		c-1.10742,1.73535-2.54736,3.27246-4.2749,4.50977l1.90186,4.28027l-5.97607,2.66309l-1.90234-4.28223
		c-2.08008,0.45996-4.1875,0.5-6.21631,0.16211L3.13281,39.5l-6.104-2.33789l1.67969-4.38086
		c-1.73584-1.11328-3.27637-2.54395-4.50928-4.28027l-4.2832,1.90625l-2.65967-5.97168l4.28125-1.90625
		c-0.46143-2.08008-0.50146-4.18799-0.16553-6.2168L-13,14.63281l2.34229-6.104l4.37744,1.67969
		c1.104-1.73584,2.54541-3.27637,4.27783-4.50928L-3.9082,1.41602z M3.51123,10.03906
		c-4.94775,2.20215-7.17432,8.00195-4.97217,12.95117c2.20215,4.94629,8.00195,7.17285,12.94629,4.9707
		c4.95068-2.2041,7.17773-8.00195,4.9707-12.94971C14.25293,10.06348,8.46045,7.83691,3.51123,10.03906z"/>
	<circle fill="#0083ca" cx="39" cy="-0.99951" r="12"/>
	<circle fill="#0083ca" cx="39" cy="39" r="12"/>
	
		<rect fill="#0083ca" x="15.00024" y="1.0006" transform="matrix(0.90631 -0.42262 0.42262 0.90631 1.2616 11.69175)" width="23.99952" height="3.99977"/>
	
		<rect fill="#0083ca" x="15.00024" y="32.00109" transform="matrix(-0.90631 -0.42262 0.42262 -0.90631 37.10099 76.22699)" width="23.99952" height="3.99977"/>
</g>
<g id="discussions" display="none">
	<path display="inline" d="M23-13c15.46484,0,28,7.76074,28,17.33398c0,6.07031-5.03906,11.41211-12.67383,14.50781
		c1.62891,3.1416,4.48438,6.59863,7.3418,10.9502c-5.94336-2.07227-14.82422-4.07715-20.0957-8.19727L23,21.66699
		c-15.46387,0-28-7.75977-28-17.33301S7.53613-13,23-13z M29.66602,28.33496c0,8.10156-9.55078,14.66602-21.33154,14.66602
		l-1.62256-0.04297C2.37549,46.97461-3.64355,51-10.33301,51c1.55713-3.11523,4.93604-6.22949,6.94385-10.41016
		c-5.78955-2.62109-9.61035-7.12988-9.61035-12.25488c0-5.12207,3.81738-9.63086,9.60352-12.25391
		c4.95361,4.88281,13.72998,8.12891,23.73193,8.12891l2.57227-0.07227c1.88477,1.47363,4.23633,2.67676,6.74805,3.70996
		L29.66602,28.33496z"/>
</g>
<g id="version" display="none">
	<path display="inline" d="M7,5.66699h18.66699V11v32H31v8H7v-8h5.33398V13.66699H7V5.66699z M19-13
		c3.68359,0,6.66699,2.98535,6.66699,6.66699S22.68359,0.33301,19,0.33301c-3.68164,0-6.66504-2.98438-6.66504-6.66602
		S15.31836-13,19-13z"/>
</g>
<g id="unlock" display="none">
	<path display="inline" d="M33.68848-13c-8.96777,0-16.2627,7.29492-16.2627,16.26221v13.11475H-13V51h43.01563V16.37695h-5.24512
		V3.26221c0-4.91797,4-8.91797,8.91797-8.91797s8.91797,4,8.91797,8.91797v10.68848h7.34473V3.26221
		C49.95117-5.70508,42.65527-13,33.68848-13z"/>
</g>
<g id="lock" display="none">
	<g display="inline">
		<path fill="none" d="M17.42627,3.26221c0-4.91797-4-8.91797-8.91797-8.91797s-8.91797,4-8.91797,8.91797v13.11475h17.83594
			V3.26221z"/>
		<path d="M24.77148,16.37695V3.26221C24.77148-5.70508,17.47559-13,8.5083-13S-7.75391-5.70508-7.75391,3.26221v13.11475H-13V51
			h43.01563V16.37695H24.77148z M-0.40967,3.26221c0-4.91797,4-8.91797,8.91797-8.91797s8.91797,4,8.91797,8.91797v13.11475
			H-0.40967V3.26221z"/>
	</g>
</g>
<g id="create-discussion" display="none">
	<g display="inline">
		<polygon fill="none" points="21.21094,-8 16.78906,-8 16.78906,3.78955 5,3.78955 5,8.21143 16.78906,8.21143 16.78906,20 
			21.21094,20 21.21094,8.21143 33,8.21143 33,3.78955 21.21094,3.78955 		"/>
		<g>
			<polygon fill="none" points="21.21094,-8 16.78906,-8 16.78906,3.78955 5,3.78955 5,8.21143 16.78906,8.21143 16.78906,20 
				21.21094,20 21.21094,8.21143 33,8.21143 33,3.78955 21.21094,3.78955 			"/>
			<path d="M51,6.81152C51-4.13135,36.6748-13,19-13C1.32666-13-13-4.13135-13,6.81152c0,10.94043,14.32666,19.81055,32,19.81055
				l2.94141-0.08398c6.02441,4.70605,16.17188,6.99805,22.96191,9.36719c-3.26367-4.97266-6.52441-8.9248-8.38672-12.51465
				C45.23926,19.85352,51,13.74756,51,6.81152z M33,8.21143H21.21094V20h-4.42188V8.21143H5V3.78955h11.78906V-8h4.42188V3.78955H33
				V8.21143z"/>
			<path d="M16.45605,28.96582l-2.10889,0.06055c-8.20557,0-15.40625-2.66504-19.46826-6.6709
				c-4.74756,2.14941-7.87842,5.85156-7.87842,10.05469c0,4.19922,3.13525,7.89844,7.88184,10.04883
				c-1.646,3.43457-4.41797,5.98242-5.69336,8.54102c5.48535,0,10.42285-3.30371,13.98242-6.5957l1.33154,0.03516
				C14.16602,44.43945,22,39.05176,22,32.41016l-0.00879-0.40234C19.93262,31.1582,18.00342,30.17188,16.45605,28.96582z"/>
		</g>
	</g>
</g>
<g id="post-comment" display="none">
	<g display="inline">
		<path d="M19-13C1.3252-13-13-1.39453-13,12.92578c0,9.07715,5.76074,17.06738,14.4834,21.69629
			C-0.37891,39.32031-3.63965,44.49219-6.90332,51c6.79004-3.10059,16.9375-6.10059,22.96191-12.25879L19,38.85059
			c17.67383,0,32-11.60742,32-25.9248C51-1.39453,36.67383-13,19-13z M33,15.13672H21.21094v11.78906h-4.42188V15.13672H5v-4.42139
			h11.78906V-1.07422h4.42188v11.78955H33V15.13672z"/>
	</g>
</g>
<g id="upload" display="none">
	<g id="upload_x5F_blue" display="inline">
		<polygon points="36.23828,4.23926 18.99854,-13 18.99854,-13 1.76172,4.23584 1.76172,18.52881 13.9458,6.34131 13.9458,51 
			24.05078,51 24.05078,6.34473 36.23828,18.53223 		"/>
	</g>
	<path display="inline" fill="#0083CA" d="M48.79004,14.49756"/>
</g>
<g id="download" display="none">
	<g id="download_x5F_blue_1_" display="inline">
		<polygon points="36.23828,33.75977 26.14355,43.85547 22.90625,47.09375 18.99854,51 18.99854,51 1.76172,33.7627 
			1.76172,19.47119 13.9458,31.6582 13.9458,-13 24.05078,-13 24.05078,31.6543 36.23828,19.46777 		"/>
	</g>
</g>
<g id="help" display="none">
	<g display="inline">
		<path d="M-3,3.53516C0.10693-7.31152,7.58008-13,20.00684-13C35.37402-13,41-4.55762,41,3.62109
			c0,7.91113-4.7002,11.64648-7.05273,13.60059c-3.10645,2.48926-6.38184,4.625-9.57227,7.28809
			c-2.35059,1.95801-2.60352,2.75781-3.02441,4.88867H10.6875c0.16748-3.99805,0.33545-6.5752,3.52832-9.95508
			c2.18066-2.30859,4.7002-3.9082,7.13477-5.68848c1.42871-1.06445,5.54395-4.17676,5.54395-8.62109
			c0-2.04395-0.67285-8.00098-7.81055-8.00098c-6.7998,0-10.07471,5.33398-10.07471,10.49121L-3,3.53516z M9.51221,35.8877H22.7793
			V51H9.51221V35.8877z"/>
	</g>
</g>
<g id="search" display="none">
	<path display="inline" d="M26.86426-13C40.19531-13,51-2.19482,51,11.13525c0,13.33154-10.80469,24.13525-24.13574,24.13525
		c-4.56445,0-8.83496-1.2666-12.5498-3.39355L-3.11133,49.30273c-2.2627,2.2627-5.92969,2.2627-8.19189,0
		s-2.26221-5.92773,0-8.19043L6.19873,23.61035c-2.20117-3.63867-3.46924-7.91016-3.46924-12.4751
		C2.72949-2.19482,13.53418-13,26.86426-13z M26.86426-5.27686c-9.06348,0-16.41162,7.34814-16.41162,16.41211
		s7.34814,16.4126,16.41162,16.4126c9.06445,0,16.41211-7.34863,16.41211-16.4126S35.92871-5.27686,26.86426-5.27686z"/>
</g>
<g id="save" display="none">
	<path display="inline" d="M-13-13h53.77734L51-2.77783V51h-64V-13z M43.88867-0.11133l-5.77734-5.77734h-1.33398v23.11084H1.22217
		V-5.88867h-7.11084v49.77734h49.77734V-0.11133z M20.77734-5.88867v17.77734h8.88965V-5.88867H20.77734z"/>
</g>
<g id="move" display="none">
	<g id="move_x5F_blue" display="inline">
		<path d="M-1.79932,13.94678h15.74658V-1.7998H7.79932L19-13L30.2002-1.7998h-6.14746v15.74658h15.74609V7.79883L51,18.99951
			L39.79883,30.2002v-6.14746H24.05273v15.74609h6.14746L19,51L7.79932,39.79883h6.14795V24.05273H-1.79932v6.14746
			l-11.2002-11.20068l11.2002-11.20068V13.94678z"/>
	</g>
</g>
<g id="rename" display="none">
	<path display="inline" d="M26.27246-2.5542l14.28223,14.28076L6.2793,46.00391L-8.00195,31.72363L26.27246-2.5542z
		 M43.2666,8.87012L29.13184-5.26758l6.05664-6.05811c2.23242-2.23242,5.84961-2.23242,8.07813,0l6.05957,6.05811
		c2.23145,2.23047,2.23145,5.84814,0,8.07813L43.2666,8.87012z M-11.57178,51l-1.42871-1.42773l3.74951-11.95996l9.63965,9.63965
		L-11.57178,51z"/>
</g>
<g id="delete" display="none">
	<g id="add_x5F_blue_1_" display="inline">
		<path d="M51,13.94727v10.10547h-64V13.94727H51z"/>
	</g>
</g>
<g id="add" display="none">
	<g id="add_x5F_blue" display="inline">
		<path d="M13.94727-13h10.10547v26.94727H51v10.10547H24.05273V51H13.94727V24.05273H-13V13.94727h26.94727V-13z"/>
	</g>
</g>
<g id="logo-blue" display="none">
	<g display="inline">
		<path fill="none" d="M23.14063,33.77734c-0.3916,0-0.41113,0.28125-0.41113,0.54492v0.97949h0.78223v-1.06348
			C23.51172,33.99316,23.48145,33.77734,23.14063,33.77734z"/>
		<path fill="none" d="M0.87012,33.77734c-0.33057,0-0.42139,0.17773-0.42139,0.54492v2.97363
			c0,0.30078,0.08057,0.44238,0.38135,0.44238c0.38135,0,0.43164-0.22656,0.43164-0.50781v-2.97363
			C1.26172,34.00293,1.23193,33.77734,0.87012,33.77734z"/>
		<path fill="none" d="M26.53418,12.09473c0.03613-0.14746,0.07031-0.4043,0.06836-0.66211
			c-0.00391-0.77148-0.48438-1.17676-1.47754-1.17676c-0.99219,0-1.54102,0.47852-1.79102,1.54492l-0.57324,2.49902h3.27148
			L26.53418,12.09473z"/>
		<path fill="none" d="M8.80566,33.77734c-0.39111,0-0.41113,0.28125-0.41113,0.54492v0.97949h0.78271v-1.06348
			C9.17725,33.99316,9.14697,33.77734,8.80566,33.77734z"/>
		<polygon fill="none" points="35.00195,36.24219 35.84473,36.24219 35.39355,32.78906 		"/>
		<path fill="none" d="M42.875,10.66113c-1.0752,0-1.69141,0.55078-1.99414,1.80078l-1.74512,7.53711
			c-0.0752,0.25684-0.07813,0.47754-0.08008,0.66113c-0.01172,0.88184,0.51953,1.36035,1.4873,1.36035
			c1.0752,0,1.69141-0.55176,1.99414-1.83789l1.74609-7.5c0.0752-0.33105,0.07715-0.47754,0.0791-0.66113
			C44.37402,11.13867,43.84277,10.66113,42.875,10.66113z"/>
		<polygon fill="#81827C" points="4.82568,37.16406 4.354,33.23145 3.53076,33.23145 4.32373,38.27441 5.28711,38.27441 
			6.12012,33.23145 5.29736,33.23145 		"/>
		<path fill="#81827C" d="M-4.18555,36.03516l-0.74268-4.40332h-1.33496v6.64258h0.87305v-5.34473l0.80273,5.34473h0.79297
			c0,0,0.58203-4.1123,0.77295-5.34473c0.04004,1.11035,0.04004,5.34473,0.04004,5.34473h0.86279v-6.64258h-1.37451
			L-4.18555,36.03516z"/>
		<path fill="#81827C" d="M8.80566,33.15527c-0.84277,0-1.2041,0.49902-1.2041,1.16699v3.00195
			c0,0.7998,0.54199,1.03516,1.16455,1.03516c0.85254,0,1.22412-0.43262,1.22412-1.26074v-0.69629H9.17725v0.88379
			c0,0.13184,0,0.46094-0.41113,0.46094c-0.35156,0-0.37158-0.25293-0.37158-0.4043v-1.4209h1.5957v-1.62793
			C9.99023,33.49414,9.52832,33.15527,8.80566,33.15527z M9.17725,35.30176H8.39453v-0.97949
			c0-0.26367,0.02002-0.54492,0.41113-0.54492c0.34131,0,0.37158,0.21582,0.37158,0.46094V35.30176z"/>
		<path fill="#81827C" d="M0.87012,33.15527c-1.00342,0-1.22412,0.66895-1.22412,1.25195v2.5127
			c0,0.78027,0.10059,1.43945,1.19434,1.43945c1.00342,0,1.21436-0.58398,1.21436-1.19531v-2.86035
			C2.05469,33.47656,1.66309,33.15527,0.87012,33.15527z M1.26172,37.23047c0,0.28125-0.05029,0.50781-0.43164,0.50781
			c-0.30078,0-0.38135-0.1416-0.38135-0.44238v-2.97363c0-0.36719,0.09082-0.54492,0.42139-0.54492
			c0.36182,0,0.3916,0.22559,0.3916,0.47949V37.23047z"/>
		<polygon fill="#81827C" points="28.48633,37.01367 27.99512,33.23145 27.41309,33.23145 26.88086,37.01367 26.58984,33.23145 
			25.81641,33.23145 26.44922,38.27441 27.34277,38.27441 27.69336,35.35742 28.03516,38.27441 28.92871,38.27441 
			29.60059,33.23145 28.80762,33.23145 		"/>
		<polygon fill="#81827C" points="16.2373,36.95703 15.51465,31.63184 14.58203,31.63184 15.66602,38.27441 16.76953,38.27441 
			17.85352,31.63184 16.92969,31.63184 		"/>
		<path fill="#81827C" d="M23.14063,33.15527c-0.84277,0-1.20508,0.49902-1.20508,1.16699v3.00195
			c0,0.7998,0.54199,1.03516,1.16504,1.03516c0.85254,0,1.22461-0.43262,1.22461-1.26074v-0.69629h-0.81348v0.88379
			c0,0.13184,0,0.46094-0.41113,0.46094c-0.35156,0-0.37109-0.25293-0.37109-0.4043v-1.4209h1.5957v-1.62793
			C24.3252,33.49414,23.86328,33.15527,23.14063,33.15527z M23.51172,35.30176h-0.78223v-0.97949
			c0-0.26367,0.01953-0.54492,0.41113-0.54492c0.34082,0,0.37109,0.21582,0.37109,0.46094V35.30176z"/>
		<rect x="19.40527" y="33.23145" fill="#81827C" width="0.80273" height="5.04297"/>
		<rect x="19.41504" y="31.66016" fill="#81827C" width="0.80273" height="0.99707"/>
		<path fill="#81827C" d="M43.74121,37.38965v-3.51855h0.46191v-0.63965h-0.45215v-1.08203h-0.80273v1.08203h-0.50098v0.63965
			h0.48145v3.66895c0,0.57422,0.16016,0.79102,0.86328,0.79102c0.24023,0,0.35059-0.02832,0.46094-0.04688
			c0-0.06641,0.01074-0.57422,0.01074-0.57422h-0.1709C43.88184,37.70996,43.74121,37.65332,43.74121,37.38965z"/>
		<path fill="#81827C" d="M34.83105,31.63184l-1.00293,6.64258h0.91309l0.16016-1.22266h1.06445l0.17969,1.22266h0.91406
			l-1.09375-6.64258H34.83105z M35.00195,36.24219l0.3916-3.45313l0.45117,3.45313H35.00195z"/>
		<path fill="#81827C" d="M39.7627,33.14648c-0.68164,0-1.21387,0.30078-1.21387,1.14746v2.99219
			c0,0.66895,0.28027,1.08203,1.18359,1.08203c0.91406,0,1.22461-0.48926,1.22461-1.17578v-0.92188H40.1543v0.94043
			c0,0.33887-0.07031,0.52734-0.42188,0.52734c-0.31055,0-0.3916-0.17871-0.3916-0.39551v-3.05762
			c0-0.27246,0.03027-0.49902,0.41211-0.49902c0.3418,0,0.40137,0.17871,0.40137,0.4043v0.85645h0.81348v-0.69629
			C40.96777,33.56055,40.60645,33.14648,39.7627,33.14648z"/>
		<path fill="#81827C" d="M47.50781,32.6748l-0.24805-1.04297h-0.4209v1.37891h0.26563c0-0.16211-0.01758-1.10938-0.01758-1.10938
			l0.26563,1.10938h0.30078l0.27148-1.11328c0,0-0.02246,0.90625-0.02246,1.11328h0.27441v-1.37891h-0.42969L47.50781,32.6748z"/>
		<polygon fill="#81827C" points="45.8457,31.86816 46.13379,31.86816 46.13379,33.01074 46.42188,33.01074 46.42188,31.86816 
			46.71875,31.86816 46.71875,31.63184 45.8457,31.63184 		"/>
		<path fill="#0083CA" d="M22.08105,17.42578h9.74219l0.89551-3.86035c0.21582-0.8457,0.28418-1.61816,0.2793-2.35352
			c-0.01953-3.3457-2.67676-5.03613-7.93457-5.03613c-5.44043,0-7.78223,1.83789-8.96387,6.98438l-1.25391,5.4043
			c-0.28613,1.25-0.39063,2.28027-0.38477,3.125c0.02246,3.75,3.44824,4.88965,7.86035,4.88965
			c5.47754,0,7.74609-1.61816,8.82129-6.17578l0.25195-1.06641h-6.61816l-0.21484,0.95605
			c-0.32129,1.43262-0.79688,1.875-1.82617,1.875c-0.91992,0-1.43652-0.4043-1.44043-1.13965
			c-0.00195-0.2207,0.03418-0.44141,0.17676-1.06641L22.08105,17.42578z M23.33398,11.80078
			c0.25-1.06641,0.79883-1.54492,1.79102-1.54492c0.99316,0,1.47363,0.40527,1.47754,1.17676
			c0.00195,0.25781-0.03223,0.51465-0.06836,0.66211l-0.50195,2.20508h-3.27148L23.33398,11.80078z"/>
		<path fill="#0083CA" d="M43.18457,6.10156c-5.84082,0-8.05566,2.24316-9.11914,6.875l-1.17676,5.11035
			c-0.30371,1.32324-0.45898,2.31641-0.46973,3.08789c-0.04688,3.63965,2.47461,5.4043,7.81445,5.4043
			c5.80566,0,8.09277-2.31641,9.11914-6.875l1.17773-5.14648c0.30273-1.32324,0.45898-2.31641,0.46875-3.08789
			C51.0459,7.86621,48.48828,6.10156,43.18457,6.10156z M44.2832,12.68262l-1.74609,7.5
			c-0.30273,1.28613-0.91895,1.83789-1.99414,1.83789c-0.96777,0-1.49902-0.47852-1.4873-1.36035
			c0.00195-0.18359,0.00488-0.4043,0.08008-0.66113l1.74512-7.53711c0.30273-1.25,0.91895-1.80078,1.99414-1.80078
			c0.96777,0,1.49902,0.47754,1.4873,1.36035C44.36035,12.20508,44.3584,12.35156,44.2832,12.68262z"/>
		<polygon fill="#0083CA" points="10.69385,1.31738 4.98047,26.06445 11.89209,26.06445 17.99414,-0.36816 		"/>
		<path fill="#0083CA" d="M5.96973,16.50586h-7.24219l-0.58838,2.57324c-0.4043,1.83887-0.91895,2.38965-2.16895,2.38965
			c-1.13965,0-1.72803-0.47754-1.72803-1.32324c0-0.29395,0.03662-0.66113,0.18408-1.28613l2.60986-11.17676
			c0.51465-2.20508,0.77197-2.86719,2.31592-2.86719c1.02979,0,1.6543,0.47754,1.6543,1.28613
			c0,0.29492-0.03662,0.69922-0.14648,1.21387L0.30811,9.70508h7.16895l0.55127-2.46387
			C8.2124,6.50684,8.28564,5.77148,8.28564,5.07227c0-3.56543-2.9043-5.44043-8.49219-5.44043
			c-6.06592,0-8.63916,1.94824-10.07275,8.16113l-2.02246,8.67676C-12.85303,18.82227-13,19.85156-13,20.84473
			c0,3.89551,2.64697,5.73438,8.27148,5.73438c3.56592,0,6.10254-0.77246,7.7207-2.42676
			c1.28613-1.28711,1.98486-2.97754,2.68311-6.24902L5.96973,16.50586z"/>
	</g>
</g>
<g id="logo-white" display="none">
	<g display="inline">
		<path fill="none" d="M26.53418,12.09473c0.03516-0.14746,0.07031-0.40527,0.06934-0.66211
			c-0.00488-0.77246-0.48535-1.17676-1.47754-1.17676c-0.99316,0-1.54102,0.47852-1.79199,1.54395l-0.57324,2.5h3.27148
			L26.53418,12.09473z"/>
		<path fill="none" d="M8.80566,33.77637c-0.39063,0-0.41113,0.2832-0.41113,0.5459v0.97852h0.7832v-1.0625
			C9.17773,33.99316,9.14746,33.77637,8.80566,33.77637z"/>
		<path fill="none" d="M23.14063,33.77734c-0.3916,0-0.41113,0.28223-0.41113,0.54492v0.97852h0.78223v-1.0625
			C23.51172,33.99316,23.48145,33.77734,23.14063,33.77734z"/>
		<polygon fill="none" points="35.00195,36.24219 35.84473,36.24219 35.39355,32.78906 		"/>
		<path fill="none" d="M42.875,10.66016c-1.0752,0-1.69141,0.55176-1.99414,1.80176l-1.74512,7.53613
			c-0.0752,0.25781-0.07813,0.47852-0.08008,0.66211c-0.01172,0.88184,0.51953,1.36035,1.4873,1.36035
			c1.0752,0,1.69141-0.55176,1.99512-1.83789l1.74414-7.5c0.07617-0.33105,0.07813-0.47852,0.08008-0.66211
			C44.37402,11.13867,43.84277,10.66016,42.875,10.66016z"/>
		<path fill="none" d="M0.87012,33.77637c-0.33105,0-0.4209,0.17871-0.4209,0.5459v2.97363
			c0,0.30078,0.08008,0.44238,0.38086,0.44238c0.38184,0,0.43164-0.22656,0.43164-0.50781v-2.97363
			C1.26172,34.00293,1.23145,33.77637,0.87012,33.77637z"/>
		<polygon fill="#FFFFFF" points="17.99414,-0.36816 10.69434,1.31641 4.98047,26.06348 11.89258,26.06348 17.99512,-0.36816 		"/>
		<path fill="#FFFFFF" d="M5.96973,16.50586h-7.24219l-0.58789,2.57324c-0.40527,1.83789-0.91992,2.38965-2.16895,2.38965
			c-1.13965,0-1.72852-0.47754-1.72852-1.32324c0-0.29395,0.03711-0.66211,0.18359-1.28711l2.61035-11.17578
			c0.51465-2.20605,0.77246-2.86719,2.31641-2.86719c1.0293,0,1.6543,0.47754,1.6543,1.28613
			c0,0.29395-0.03711,0.69922-0.14746,1.21387L0.30859,9.70508h7.16895l0.55078-2.46387
			c0.18457-0.73535,0.25781-1.46973,0.25781-2.16895c0-3.56543-2.9043-5.44043-8.49219-5.44043
			c-6.06641,0-8.63965,1.94824-10.07324,8.16113l-2.02246,8.67578C-12.85254,18.82227-13,19.85156-13,20.84375
			c0,3.89746,2.64746,5.73535,8.27148,5.73535c3.56641,0,6.10254-0.77246,7.7207-2.42676
			c1.28613-1.28613,1.98535-2.97754,2.68359-6.25L5.96973,16.50586z"/>
		<path fill="#FFFFFF" d="M22.08105,17.4248h9.74219l0.89551-3.86035c0.21582-0.8457,0.28418-1.61719,0.28027-2.35254
			c-0.02051-3.3457-2.67773-5.03613-7.93555-5.03613c-5.44043,0-7.78223,1.83789-8.96387,6.98438l-1.25391,5.4043
			c-0.28613,1.25-0.39063,2.2793-0.38477,3.125c0.02246,3.75,3.44824,4.88965,7.86035,4.88965
			c5.47754,0,7.74707-1.61816,8.82227-6.17676l0.25098-1.06543h-6.61816l-0.21484,0.95508
			c-0.32129,1.43457-0.79688,1.875-1.82617,1.875c-0.91895,0-1.43652-0.4043-1.44043-1.13965
			c-0.00195-0.21973,0.0332-0.44043,0.17676-1.06543L22.08105,17.4248z M23.33398,11.7998
			c0.25098-1.06543,0.79883-1.54395,1.79199-1.54395c0.99219,0,1.47266,0.4043,1.47754,1.17676
			c0.00098,0.25684-0.03418,0.51465-0.06934,0.66211l-0.50195,2.20508h-3.27148L23.33398,11.7998z"/>
		<path fill="#FFFFFF" d="M43.18457,6.10156c-5.84082,0-8.05566,2.24316-9.11914,6.875l-1.17676,5.11035
			c-0.30371,1.32324-0.45996,2.31543-0.46973,3.08789c-0.04688,3.63965,2.47461,5.4043,7.81445,5.4043
			c5.80566,0,8.09277-2.31641,9.11914-6.875l1.17676-5.14648c0.30371-1.32422,0.45996-2.31641,0.46973-3.08789
			C51.0459,7.86621,48.48828,6.10156,43.18457,6.10156z M44.28223,12.68262l-1.74414,7.5
			c-0.30371,1.28613-0.91992,1.83789-1.99512,1.83789c-0.96777,0-1.49902-0.47852-1.4873-1.36035
			c0.00195-0.18359,0.00488-0.4043,0.08008-0.66211l1.74512-7.53613c0.30273-1.25,0.91895-1.80176,1.99414-1.80176
			c0.96777,0,1.49902,0.47852,1.4873,1.36035C44.36035,12.2041,44.3584,12.35156,44.28223,12.68262z"/>
		<polygon fill="#9BCDE9" points="4.82617,37.16406 4.35449,33.23145 3.53125,33.23145 4.32422,38.27441 5.28711,38.27441 
			6.12012,33.23145 5.29785,33.23145 		"/>
		<path fill="#9BCDE9" d="M0.87012,33.15625c-1.00293,0-1.22363,0.66797-1.22363,1.25098v2.5127
			c0,0.78027,0.09961,1.43945,1.19434,1.43945c1.00293,0,1.21387-0.58398,1.21387-1.19531v-2.86035
			C2.05469,33.47559,1.66309,33.15625,0.87012,33.15625z M1.26172,37.23047c0,0.28125-0.0498,0.50781-0.43164,0.50781
			c-0.30078,0-0.38086-0.1416-0.38086-0.44238v-2.97363c0-0.36719,0.08984-0.5459,0.4209-0.5459
			c0.36133,0,0.3916,0.22656,0.3916,0.48047V37.23047z"/>
		<path fill="#9BCDE9" d="M-4.18555,36.03516l-0.74316-4.40332h-1.33496v6.64258h0.87402v-5.34473l0.80273,5.34473h0.79297
			c0,0,0.58203-4.1123,0.77246-5.34473c0.04004,1.11035,0.04004,5.34473,0.04004,5.34473h0.86328v-6.64258h-1.375L-4.18555,36.03516
			z"/>
		<path fill="#9BCDE9" d="M8.80566,33.15625c-0.84277,0-1.2041,0.49805-1.2041,1.16602v3.00195
			c0,0.7998,0.54199,1.03516,1.16406,1.03516c0.85352,0,1.22461-0.43359,1.22461-1.26074v-0.69629h-0.8125v0.88379
			c0,0.13184,0,0.46094-0.41211,0.46094c-0.35059,0-0.37109-0.25391-0.37109-0.4043v-1.4209h1.5957v-1.62793
			C9.99023,33.49414,9.52832,33.15625,8.80566,33.15625z M9.17773,35.30078h-0.7832v-0.97852
			c0-0.2627,0.02051-0.5459,0.41113-0.5459c0.3418,0,0.37207,0.2168,0.37207,0.46191V35.30078z"/>
		<rect x="19.40527" y="33.23145" fill="#9BCDE9" width="0.80273" height="5.04297"/>
		<path fill="#9BCDE9" d="M23.14063,33.15625c-0.84277,0-1.2041,0.49805-1.2041,1.16602v3.00195
			c0,0.7998,0.54102,1.03516,1.16406,1.03516c0.85254,0,1.22461-0.43359,1.22461-1.26074v-0.69629h-0.81348v0.88379
			c0,0.13184,0,0.46094-0.41113,0.46094c-0.35156,0-0.37109-0.25391-0.37109-0.4043v-1.4209h1.5957v-1.62793
			C24.3252,33.49414,23.86328,33.15625,23.14063,33.15625z M23.51172,35.30078h-0.78223v-0.97852
			c0-0.2627,0.01953-0.54492,0.41113-0.54492c0.34082,0,0.37109,0.21582,0.37109,0.46094V35.30078z"/>
		<polygon fill="#9BCDE9" points="16.2373,36.95703 15.51465,31.63184 14.58203,31.63184 15.66602,38.27441 16.76953,38.27441 
			17.85352,31.63184 16.93066,31.63184 		"/>
		<rect x="19.41504" y="31.66016" fill="#9BCDE9" width="0.80273" height="0.99707"/>
		<polygon fill="#9BCDE9" points="28.48633,37.01367 27.99512,33.23145 27.41309,33.23145 26.88086,37.01367 26.58984,33.23145 
			25.81738,33.23145 26.44922,38.27441 27.34277,38.27441 27.69336,35.35742 28.03516,38.27441 28.92871,38.27441 
			29.60059,33.23145 28.80762,33.23145 		"/>
		<path fill="#9BCDE9" d="M43.74121,37.38965v-3.51855h0.46191v-0.63965h-0.45117v-1.08203h-0.80371v1.08203h-0.50195v0.63965
			h0.48242v3.66895c0,0.57422,0.16016,0.79102,0.86328,0.79102c0.24023,0,0.35059-0.02832,0.46094-0.04688
			c0-0.06641,0.01074-0.57422,0.01074-0.57422h-0.1709C43.88184,37.70996,43.74121,37.65332,43.74121,37.38965z"/>
		<path fill="#9BCDE9" d="M34.83105,31.63184l-1.00293,6.64258h0.91309l0.16016-1.22266h1.06445l0.18066,1.22266h0.91309
			l-1.09375-6.64258H34.83105z M35.00195,36.24219l0.3916-3.45313l0.45117,3.45313H35.00195z"/>
		<path fill="#9BCDE9" d="M39.7627,33.14648c-0.68164,0-1.21387,0.30078-1.21387,1.14746v2.99219
			c0,0.66797,0.28125,1.08203,1.18457,1.08203c0.91309,0,1.22363-0.48926,1.22363-1.17578v-0.92188H40.1543v0.94043
			c0,0.33887-0.07031,0.52734-0.4209,0.52734c-0.31152,0-0.3916-0.17871-0.3916-0.39551v-3.05762
			c0-0.27344,0.0293-0.49902,0.41113-0.49902c0.3418,0,0.40137,0.17871,0.40137,0.4043v0.85645h0.81348v-0.69629
			C40.96777,33.56055,40.60645,33.14648,39.7627,33.14648z"/>
		<path fill="#9BCDE9" d="M47.50781,32.6748l-0.24805-1.04297h-0.4209v1.37891h0.26563c0-0.16211-0.01758-1.10938-0.01758-1.10938
			l0.26563,1.10938h0.30176l0.26953-1.11328c0,0-0.02148,0.90625-0.02148,1.11328h0.27441v-1.37891h-0.42969L47.50781,32.6748z"/>
		<polygon fill="#9BCDE9" points="45.8457,31.86816 46.13379,31.86816 46.13379,33.01074 46.42188,33.01074 46.42188,31.86816 
			46.71875,31.86816 46.71875,31.63184 45.8457,31.63184 		"/>
	</g>
</g>
<g id="shield-blue" display="none">
	<polygon display="inline" fill="#66B5E0" points="42.56055,0.72852 7.39551,0.72852 11.61523,8.03711 38.33984,8.03711 
		15.83496,47.01758 24.27539,47.01758 46.78027,8.03711 51,0.72852 	"/>
	<polygon display="inline" fill="#0477B7" points="15.73438,8.03711 8.42578,0.72852 7.39551,0.72852 11.61523,8.03711 	"/>
	<polygon display="inline" fill="#349BD4" points="-13,-0.48926 13.72461,45.7998 35.52734,8.03711 27.08789,8.03711 
		13.72461,31.18164 -8.7793,-7.79883 	"/>
	<polygon display="inline" fill="#0477B7" points="25.02832,11.60449 35.01367,8.92871 35.52734,8.03711 27.08789,8.03711 	"/>
	<polygon display="inline" fill="#0083CA" points="-6.66992,-9.0166 15.13281,28.74609 19.35156,21.4375 5.98926,-1.70801 
		51,-1.70801 46.78027,-9.0166 	"/>
	<polygon display="inline" fill="#0477B7" points="17.29297,17.86914 14.61719,27.85449 15.13281,28.74609 19.35156,21.43652 	"/>
	<g display="inline">
		<defs>
			<rect id="SVGID_1_" x="-13" y="-9.0166" width="64" height="56.03418"/>
		</defs>
		<clipPath id="SVGID_2_">
			<use xlink:href="#SVGID_1_"  overflow="visible"/>
		</clipPath>
		<path clip-path="url(#SVGID_2_)" fill="#0083CA" d="M30.17676,45.16797v-0.3916h-1.71582v0.3916h0.63574v1.84961h0.48535v-1.84961
			H30.17676z M32.64844,47.01758v-2.24121h-0.71582l-0.37207,1.57324l-0.38477-1.57324h-0.72266v2.24121h0.45898
			c0-0.12793-0.02637-1.80273-0.02637-1.80273l0.47266,1.80273h0.39258l0.45898-1.77637c0,0,0,0.80371-0.00684,1.77637H32.64844z"/>
	</g>
</g>
<g id="shield-white" display="none">
	<polygon display="inline" fill="#FFFFFF" points="42.56055,0.72852 7.39453,0.72852 11.61523,8.03613 38.33984,8.03613 
		15.83496,47.01758 24.27441,47.01758 46.7793,8.03613 51,0.72852 	"/>
	<polygon display="inline" fill="#D1D3D4" points="15.73438,8.03711 8.4248,0.72754 7.39453,0.72754 11.61523,8.03711 	"/>
	<polygon display="inline" fill="#FFFFFF" points="-13,-0.49023 13.72461,45.7998 35.52734,8.03613 27.08789,8.03613 
		13.72461,31.18164 -8.78027,-7.79883 	"/>
	<polygon display="inline" fill="#D1D3D4" points="25.02832,11.60352 35.0127,8.92871 35.52734,8.03711 27.08789,8.03711 	"/>
	<polygon display="inline" fill="#FFFFFF" points="-6.66992,-9.01758 15.13184,28.74512 19.35156,21.43652 5.98828,-1.70898 
		51,-1.70898 46.7793,-9.01758 	"/>
	<polygon display="inline" fill="#D1D3D4" points="17.29199,17.86914 14.61719,27.85352 15.13184,28.74512 19.35156,21.43652 	"/>
	<g display="inline">
		<defs>
			<rect id="SVGID_3_" x="-13" y="-9.01758" width="64" height="56.03516"/>
		</defs>
		<clipPath id="SVGID_4_">
			<use xlink:href="#SVGID_3_"  overflow="visible"/>
		</clipPath>
		<path clip-path="url(#SVGID_4_)" fill="#FFFFFF" d="M30.17578,45.16699v-0.39063h-1.71484v0.39063h0.63477v1.85059h0.48633
			v-1.85059H30.17578z M32.64746,47.01758v-2.24121h-0.71484l-0.37207,1.57227l-0.38477-1.57227h-0.72266v2.24121h0.45801
			c0-0.12891-0.02637-1.80371-0.02637-1.80371l0.47266,1.80371H31.75l0.45996-1.77637c0,0,0,0.80371-0.00781,1.77637H32.64746z"/>
	</g>
</g>
<g id="profile" display="none">
	<path display="inline" d="M19.00049-13C12.45557-13,7.14893-7.69336,7.14893-1.14746c0,6.54492,5.30664,11.85205,11.85156,11.85205
		c6.54639,0,11.85205-5.30713,11.85205-11.85205C30.85254-7.69336,25.54688-13,19.00049-13z M7.14893,27.29785L6.2417,47.81152
		C10.45703,49.85547,15.18799,51,20.18555,51c4.10254,0,8.02148-0.77051,11.625-2.1748l-0.95801-21.52734
		c1.58105,0.78906,4.74414,7.1123,4.74414,7.1123s1.57715,2.36719,2.36523,11.85059l7.1123-2.37207l-2.36914-11.84961
		c0,0-4.74316-16.59473-14.22266-16.59375H9.51855C0.0376,15.44434-4.70166,32.03906-4.70166,32.03906l-2.37207,11.84961
		l7.11133,2.37207c0.78906-9.4834,2.37012-11.85156,2.37012-11.85156S5.56836,28.08691,7.14893,27.29785z"/>
</g>
<g id="folder" display="none">
	<path display="inline" d="M-11,43.54492L1.27246,8.09082H49l-12.27246,35.4541H-11z M-11-0.09082h21.81836
		c1.36328-4.09082,3.40918-5.45459,3.40918-5.45459h15.34082c0.75391,0,1.7041,0.95117,1.7041,1.70459v3.75h5.45508v5.45459
		H-0.09082L-11,38.63672V-0.09082z"/>
</g>
<g id="doc-binary" display="none">
	<g id="doc-binary_x5F_blue_2_" display="inline">
		<g>
			<path d="M-5.34766-10.2168h30.95703L43.34766,7.521v40.6958H-5.34766V-10.2168z M0.21631-4.65137v47.30273h37.56396V12.04248
				H21.08301V-4.65137H0.21631L0.21631-4.65137z M25.25879-2.91309v10.7832h10.78418L25.25879-2.91309z"/>
			<g>
				<path d="M10.40527,15.01611c0,1.77979-0.24854,2.48193-0.97705,3.1333c-0.75,0.64941-1.75293,0.8501-2.70361,0.8501
					c-0.55127,0-2.77979-0.02637-3.4082-2.10156c-0.17432-0.55273-0.17432-1.05273-0.17432-2.13184V4.5459
					c0-1.52979,0.42432-3.63135,3.68408-3.63135c3.27979,0,3.58252,2.15137,3.58252,3.75635v10.34521H10.40527z M8.25391,4.49316
					c0-1.02637-0.15137-1.87646-1.47998-1.87646c-1.0791,0-1.48047,0.6001-1.48047,1.57715v11.29932
					c0,0.92432,0.15283,1.67773,1.48047,1.67773c0.97656,0,1.47998-0.42627,1.47998-1.60547V4.49316z"/>
			</g>
			<g>
				<path d="M15.25732,18.52295V5.1709h-1.9541V3.44092c0.44922-0.0498,2.25146-0.22412,2.65137-2.52637h1.52979v17.6084H15.25732z"
					/>
			</g>
			<g>
				<path d="M22.63281,35.88672c0,1.78125-0.25,2.48242-0.97754,3.12988c-0.75195,0.65332-1.75293,0.85352-2.70557,0.85352
					c-0.55127,0-2.78125-0.02441-3.40625-2.10352c-0.17627-0.55078-0.17627-1.05273-0.17627-2.13184V25.41504
					c0-1.52832,0.42432-3.63184,3.68262-3.63184c3.28027,0,3.58301,2.1543,3.58301,3.75684V35.88672L22.63281,35.88672z
					 M20.47754,25.36523c0-1.0293-0.14941-1.87793-1.47705-1.87793c-1.07861,0-1.47998,0.60059-1.47998,1.58008v11.29688
					c0,0.92871,0.15283,1.67871,1.47998,1.67871c0.97607,0,1.47705-0.42773,1.47705-1.60352V25.36523z"/>
			</g>
			<g>
				<path d="M6.63867,39.3916V26.04004H4.68506v-1.73047c0.44727-0.0459,2.25146-0.22168,2.65137-2.52637h1.5293v17.6084H6.63867z"
					/>
			</g>
			<g>
				<path d="M29.4082,39.3916V26.04004h-1.9541v-1.73047c0.44922-0.0459,2.25-0.22168,2.65137-2.52637h1.53027v17.6084H29.4082z"/>
			</g>
		</g>
	</g>
</g>
<g id="doc-text" display="none">
	<g id="doc-text_x5F_blue_1_" display="inline">
		<path d="M-5.34766-10.2168h30.95703L43.34766,7.521v40.6958H-5.34766V-10.2168z M0.21631-4.65137v47.30273h37.56396V12.04248
			H21.08301V-4.65137H0.21631L0.21631-4.65137z M25.25879-2.91309v10.7832h10.78418L25.25879-2.91309z M3.00098,0.91455h15.30371
			v4.17236H3.00098V0.91455z M3.00098,7.87012h15.30371v4.17383H3.00098V7.87012z M3.00098,14.82715h31.99805v4.17236H3.00098
			V14.82715z M3.00098,21.7832h31.99805v4.1748H3.00098V21.7832z M3.00098,28.73926h31.99805v4.17578H3.00098V28.73926z
			 M3.00098,35.69629h31.99805v4.17578H3.00098V35.69629z"/>
	</g>
</g>
<g id="doc-excel" display="none">
	<g id="doc-excel_x5F_blue_1_" display="inline">
		<path d="M-7.43262-13h30.95605L41.2627,4.73779v10.0874h-5.56738V9.25928H19.00098V-7.43457H-1.86865v47.30273h15.65283
			l-4.52295,5.56543h-16.6958V-13H-7.43262z M41.26074,42.30371l-5.56543-7.99902v-5.56641l5.56543-6.95898V42.30371z
			 M22.13086,45.43359l4.15332-5.08496l3.15137,5.08496H22.13086z M23.17383-5.69629v10.7832h10.78418L23.17383-5.69629z
			 M11.00098,16.21631h10.08496l6.31348,8.93506l6.90918-8.93506h9.03809L31.53027,31.1084L45.43457,51H34.99805l-8.73047-13.18945
			l-7.2666,9.01465H9.9585l12.17725-14.97168L11.00098,16.21631z"/>
	</g>
</g>
<g id="doc-ppt" display="none">
	<g id="doc-ppt_x2B_blue_1_" display="inline">
		<path d="M31.33008,18.89063c3.39258-0.05908,6.52734,1.3125,9.07227,3.17188l-8.80273,12.24805l14.7168,4.62207
			c-1.93359,6.15918-7.63672,10.67676-14.44727,10.7959C23.35742,49.875,16.33057,43.09473,16.18262,34.5791
			C16.03467,26.0625,22.81738,19.04199,31.33008,18.89063z M-8.31689-11.73047h30.95654L40.37891,6.00732v12.48193l-5.56836-2.27295
			v-5.6875H18.1167V-6.16504H-2.75293V41.1377h17.04248l2.0874,5.56543H-8.31689V-11.73047z M22.28906-4.42676v10.7832h10.78516
			L22.28906-4.42676z M11.5083,36.7334H0.49512v-4.4043H11.5083V36.7334z M13.7124,30.12793H0.49512V25.7207H13.7124V30.12793z
			 M0.49512,23.5166v-4.40576h15.41797v4.40576H0.49512z"/>
	</g>
</g>
<g id="doc-word" display="none">
	<g id="doc-word_x5F_blue_1_" display="inline">
		<path d="M15.52344,50.30469L5.7832,21.08789h-2.7793v-4.17578h11.12793v4.17578h-2.78125l6.07422,18.42773l8.18359-22.60352
			h3.48047l8.0332,22.60352l4.83496-18.42773H39.1748v-4.17578h11.12793v4.17578h-2.7793l-8.34863,29.2168h-2.78125
			l-9.27148-23.46484l-8.81592,23.46484H15.52344z M-12.30176-12.3042h30.95654L36.39355,5.43359v26.78125l-5.56738-15.30273
			v-6.9585H14.13184V-6.73877H-6.73779v47.30322h17.04248l2.0874,5.56445h-24.69385V-12.3042z M21.7832,46.12891l2.08887-5.56445
			h6.9541l2.08398,5.56445H21.7832z M18.30469-5.00049v10.7832h10.78418L18.30469-5.00049z"/>
	</g>
</g>
<g id="share-group_2" display="none">
	<path display="inline" d="M-4.46582,10.46729c4.71338,0,8.53271,3.81934,8.53271,8.53271
		c0,2.69727-1.25098,5.10254-3.20508,6.66602c2.69336,8.19629,10.21826,14.2041,19.20557,14.66797
		c0,3.30859,1.36914,6.2959,3.57227,8.42871l-2.50586,0.10352c-13.75635,0-25.34033-9.30078-28.80762-21.95605
		C-10.79736,25.64258-13,22.5791-13,19C-13,14.28662-9.17871,10.46729-4.46582,10.46729z M30.73438-10.86572
		c4.71289,0,8.53418,3.81982,8.53418,8.53271c0,4.71338-3.82129,8.5332-8.53418,8.5332c-4.7041,0-8.51855-3.80664-8.53418-8.50684
		c-0.35254-0.01709-0.70801-0.02637-1.06641-0.02637c-8.2876,0-15.4707,4.7251-19.00342,11.62891
		c-1.87891-1.28027-4.1499-2.02881-6.59619-2.02881l-1.94189,0.15918c4.52197-10.74609,15.1499-18.29199,27.5415-18.29199
		c2.15918,0,4.26465,0.229,6.29395,0.66309C28.44434-10.63037,29.56152-10.86572,30.73438-10.86572z M31.7998,31.7998
		c1.88477,0,3.62402,0.61035,5.03613,1.64258c3.49609-3.7998,5.63281-8.87109,5.63281-14.44238
		c0-4.66064-1.49512-8.97217-4.03223-12.48145c2.37109-2.06445,3.9043-5.06738,4.02441-8.42773C47.74316,3.47754,51,10.85938,51,19
		c0,9.26172-4.21484,17.53906-10.83203,23.01758c-0.78125,3.90625-4.23145,6.84863-8.36816,6.84863
		c-4.71191,0-8.53125-3.82031-8.53125-8.53223C23.26855,35.62109,27.08789,31.7998,31.7998,31.7998z"/>
</g>
<g id="share-group" display="none">
	<g display="inline">
		<path fill="none" d="M39.20996,27.4209c1.67188,0,3.26074,0.35254,4.70117,0.98047
			c1.30371-2.86621,2.03613-6.04785,2.03613-9.40186s-0.73242-6.53516-2.03613-9.40137
			c-1.44043,0.62744-3.0293,0.98047-4.70117,0.98047c-6.51074,0-11.78906-5.27832-11.78906-11.78955
			c0-0.71631,0.07422-1.41455,0.19629-2.0957c-1.42578-0.28027-2.89844-0.43066-4.40625-0.43066
			c-8.60352,0-16.09082,4.78027-19.95264,11.82959c4.29443,1.76123,7.3208,5.97803,7.3208,10.90723s-3.02637,9.146-7.3208,10.90771
			c3.86182,7.04883,11.34863,11.8291,19.95264,11.8291c1.50781,0,2.98047-0.15039,4.40625-0.43066
			c-0.12207-0.68066-0.19629-1.37891-0.19629-2.0957C27.4209,32.69922,32.69922,27.4209,39.20996,27.4209z"/>
		<path d="M48.06055,6.56104C49.88477,4.48486,51,1.77002,51-1.21094C51-7.72217,45.72168-13,39.20996-13
			c-3.96289,0-7.45996,1.96143-9.59766,4.95947c-2.05566-0.48486-4.19727-0.74902-6.40137-0.74902
			c-11.14844,0-20.75684,6.56494-25.18408,16.03809c-6.15381,0.39502-11.02637,5.49658-11.02637,11.75098
			s4.87207,11.35596,11.02588,11.75146C2.4541,40.22461,12.0625,46.78906,23.21094,46.78906
			c2.2041,0,4.3457-0.26465,6.40137-0.74902C31.75,49.03809,35.24707,51,39.20996,51C45.72168,51,51,45.72168,51,39.20996
			c0-2.98047-1.11523-5.69531-2.93945-7.77148C49.9375,27.69531,51,23.47266,51,18.99951S49.9375,10.30371,48.06055,6.56104z
			 M23.21094,41.73633c-8.604,0-16.09082-4.78027-19.95264-11.8291c4.29443-1.76172,7.3208-5.97852,7.3208-10.90771
			s-3.02637-9.146-7.3208-10.90723C7.12012,1.04297,14.60742-3.7373,23.21094-3.7373c1.50781,0,2.98047,0.15039,4.40625,0.43066
			c-0.12207,0.68115-0.19629,1.37939-0.19629,2.0957c0,6.51123,5.27832,11.78955,11.78906,11.78955
			c1.67188,0,3.26074-0.35303,4.70117-0.98047c1.30371,2.86621,2.03613,6.04736,2.03613,9.40137s-0.73242,6.53564-2.03613,9.40186
			c-1.44043-0.62793-3.0293-0.98047-4.70117-0.98047c-6.51074,0-11.78906,5.27832-11.78906,11.78906
			c0,0.7168,0.07422,1.41504,0.19629,2.0957C26.19141,41.58594,24.71875,41.73633,23.21094,41.73633z"/>
	</g>
</g>
<g id="share" display="none">
	<g id="share_x5F_blue_1_" display="inline">
		<path d="M39.21094,27.4209c-2.95117,0-5.6416,1.08887-7.70898,2.88184L10.53906,19.81836
			C10.55566,19.54883,10.5791,19.27734,10.5791,19c0-0.27832-0.02344-0.5498-0.04004-0.81934l20.96387-10.4834
			c2.06641,1.78906,4.75684,2.88086,7.70801,2.88086C45.72168,10.57813,51,5.29688,51-1.21094C51-7.72266,45.72168-13,39.21094-13
			C32.69922-13,27.4209-7.72266,27.4209-1.21094c0,0.27832,0.02344,0.5498,0.04004,0.81934L6.49658,10.0918
			C4.43115,8.30176,1.74023,7.20996-1.21045,7.20996C-7.72217,7.20996-13,12.48828-13,19
			c0,6.50879,5.27783,11.79004,11.78955,11.79004c2.95068,0,5.6416-1.09277,7.70898-2.88379L27.46387,38.3916
			c-0.01953,0.26953-0.04297,0.54102-0.04297,0.81934C27.4209,45.71875,32.69922,51,39.21094,51
			C45.72168,51,51,45.71875,51,39.21094C51,32.69922,45.72168,27.4209,39.21094,27.4209z"/>
	</g>
</g>
</svg>
