<?xml version="1.0" encoding="utf-8"?>
<!-- Generator: Adobe Illustrator 16.2.0, SVG Export Plug-In . SVG Version: 6.00 Build 0)  -->
<!DOCTYPE svg PUBLIC "-//W3C//DTD SVG 1.1//EN" "http://www.w3.org/Graphics/SVG/1.1/DTD/svg11.dtd">
<svg version="1.1" id="upload" xmlns="http://www.w3.org/2000/svg" xmlns:xlink="http://www.w3.org/1999/xlink" x="0px" y="0px"
	 width="56px" height="56px" viewBox="0 0 56 56" enable-background="new 0 0 56 56" xml:space="preserve">
<g>
	<path fill="#464547" d="M56,34.064c0-3.994-2.053-7.507-5.158-9.554C50.141,14.396,41.734,6.4,31.438,6.4
		c-7.559,0-14.096,4.316-17.322,10.609C6.309,17.083,0,23.428,0,31.252c0,7.869,6.38,14.247,14.248,14.247h1.896l3.012-6.46h-4.909
		c-4.3,0-7.788-3.483-7.788-7.787c0-4.304,3.488-7.789,7.788-7.789c1.532,0,2.958,0.447,4.165,1.213
		c0.641-6.632,6.226-11.816,13.025-11.816c7.229,0,13.09,5.859,13.09,13.09c0,1.102-0.149,2.165-0.405,3.186
		c0.146-0.021,0.292-0.045,0.442-0.045c2.746,0,4.976,2.229,4.976,4.976c0,2.748-2.229,4.976-4.976,4.976h-4.709l-3.014,6.46h7.723
		C50.881,45.5,56,40.382,56,34.064"/>
</g>
<polygon fill="#464547" points="38.58,37.175 34.439,37.175 30.557,45.5 22.278,45.5 26.161,37.175 22.021,37.175 34.139,28.944 "/>
</svg>
